{"Amateur":"1",
"Anal":"2",
"Asian":"5",
"BBW":"6",
"BDSM":"30",
"Big Ass":"36",
"Big Tits":"8",
"Black":"7",
"Classic":"9",
"Creampie":"37",
"Cumshot":"10",
"Fetish":"12",
"Gang Bang / Orgy":"14",
"Gay / Bi":"39",
"Hairy":"56",
"Hardcore":"35",
"Hentai / 3D":"3",
"Homemade":"25",
"Interracial":"43",
"Latina":"16",
"Lesbian":"23",
"Lingerie":"52",
"Magazines":"27",
"Manga / Comic":"53",
"Masturbation":"18",
"Mature":"26",
"Megapack":"40",
"Natural Tits":"41",
"Oral":"17",
"Other":"29",
"Parody":"47",
"Pictures / Images":"21",
"Piss":"50",
"Porn Music Videos":"55",
"Pregnant / Preggo":"46",
"Scat/Puke":"51",
"Siterip":"22",
"Softcore":"20",
"Squirt":"49",
"Straight":"34",
"Teen":"19",
"Transsexual":"15",
"Voyeur":"45",
"XXX Games / Apps":"13"}
